module gitlab.com/pdamon/fargoizer

go 1.21.0

require (
	github.com/a-h/templ v0.2.747
	github.com/gorilla/mux v1.8.1
	github.com/rs/zerolog v1.33.0
	github.com/stretchr/testify v1.9.0
)

require (
	github.com/davecgh/go-spew v1.1.1 // indirect
	github.com/mattn/go-colorable v0.1.13 // indirect
	github.com/mattn/go-isatty v0.0.20 // indirect
	github.com/pmezard/go-difflib v1.0.0 // indirect
	golang.org/x/sys v0.21.0 // indirect
	gopkg.in/yaml.v3 v3.0.1 // indirect
)
